{
  "version_name": "4.1.1",
  "version_code": 41,
  "aurora_build": "https://mitmachim.top/assets/uploads/files/1647887182030-aurora-updater-v4.1.1.apk",
  "fdroid_build": "",
  "changelog": "רשימת שינויים : v4.1.1\n • תיקוני באגים\n • שיפורים וויזואליים"
}
